{
	"site_title": "מכינות קמפוס חרדי",
	"form_title": "גם אתה יכול להתחיל את מסלול ההצלחה שלך! המכינות הקדם אקדמיות לגברים מתחילות",
	"form_question": "מעוניין לשמוע פרטים?",
	"phone_number": "03-5311888",
	"copyright_holder": "Copyright &copy; 2019. by <a href=\"http://way2cu.com\" target=\"_blank\">Way2CU</a>.",
	"copyright_text": "All rights reserved."
}
